Kyu,Name,Desc,Detail,Picture
1,ノリョコッキ(押し拘束),눌러꺾기,相手の関節を押して折る技術。相手の腕を取った時腕かかとや肩関節部位をアグムソン(弓形の手)で押すとか足を取った時膝関節を押して折る技術です。,NoImage
1,ピットロコッキ(ひねり拘束),비틀어꺾기,相手の関節を拗って折る技術。手首や襟がつかまった時、腕を時計方向あるいは時計反対方向に回して相手の腕を折って圧する技術です。,NoImage
